%YAML 1.1
%TAG !u! tag:unity3d.com,2011:
--- !u!74 &7400000
AnimationClip:
  m_ObjectHideFlags: 0
  m_PrefabParentObject: {fileID: 0}
  m_PrefabInternal: {fileID: 0}
  m_Name: Dead
  serializedVersion: 6
  m_Legacy: 0
  m_Compressed: 0
  m_UseHighQualityCurve: 1
  m_RotationCurves: []
  m_CompressedRotationCurves: []
  m_EulerCurves: []
  m_PositionCurves: []
  m_ScaleCurves: []
  m_FloatCurves: []
  m_PPtrCurves:
  - curve:
    - time: 0
      value: {fileID: 21300344, guid: 54f38dbd74aabc34094c6b180b12c935, type: 3}
    - time: 0.08333397
      value: {fileID: 21300346, guid: 54f38dbd74aabc34094c6b180b12c935, type: 3}
    - time: 0.16666698
      value: {fileID: 21300348, guid: 54f38dbd74aabc34094c6b180b12c935, type: 3}
    - time: 0.25
      value: {fileID: 21300350, guid: 54f38dbd74aabc34094c6b180b12c935, type: 3}
    - time: 0.33333397
      value: {fileID: 21300352, guid: 54f38dbd74aabc34094c6b180b12c935, type: 3}
    - time: 0.41666698
      value: {fileID: 21300354, guid: 54f38dbd74aabc34094c6b180b12c935, type: 3}
    attribute: m_Sprite
    path: 
    classID: 212
    script: {fileID: 0}
  m_SampleRate: 60
  m_WrapMode: 0
  m_Bounds:
    m_Center: {x: 0, y: 0, z: 0}
    m_Extent: {x: 0, y: 0, z: 0}
  m_ClipBindingConstant:
    genericBindings:
    - serializedVersion: 2
      path: 0
      attribute: 0
      script: {fileID: 0}
      typeID: 212
      customType: 23
      isPPtrCurve: 1
    pptrCurveMapping:
    - {fileID: 21300344, guid: 54f38dbd74aabc34094c6b180b12c935, type: 3}
    - {fileID: 21300346, guid: 54f38dbd74aabc34094c6b180b12c935, type: 3}
    - {fileID: 21300348, guid: 54f38dbd74aabc34094c6b180b12c935, type: 3}
    - {fileID: 21300350, guid: 54f38dbd74aabc34094c6b180b12c935, type: 3}
    - {fileID: 21300352, guid: 54f38dbd74aabc34094c6b180b12c935, type: 3}
    - {fileID: 21300354, guid: 54f38dbd74aabc34094c6b180b12c935, type: 3}
  m_AnimationClipSettings:
    serializedVersion: 2
    m_AdditiveReferencePoseClip: {fileID: 0}
    m_AdditiveReferencePoseTime: 0
    m_StartTime: 0
    m_StopTime: 0.43333367
    m_OrientationOffsetY: 0
    m_Level: 0
    m_CycleOffset: 0
    m_HasAdditiveReferencePose: 0
    m_LoopTime: 0
    m_LoopBlend: 0
    m_LoopBlendOrientation: 0
    m_LoopBlendPositionY: 0
    m_LoopBlendPositionXZ: 0
    m_KeepOriginalOrientation: 0
    m_KeepOriginalPositionY: 1
    m_KeepOriginalPositionXZ: 0
    m_HeightFromFeet: 0
    m_Mirror: 0
  m_EditorCurves: []
  m_EulerEditorCurves: []
  m_HasGenericRootTransform: 0
  m_HasMotionFloatCurves: 0
  m_GenerateMotionCurves: 0
  m_Events: []
